Core-Based Embedded System Design/CA2-PartB/part 1/Counter_test.vcd
$date
     Apr 15, 2025       20:12:12
$end

$version
 SystemC 2.3.4-Accellera --- Mar  6 2023 09:32:15
$end

$timescale
     1 ps
$end

$scope module SystemC $end
$var wire    1  aaaaa  clk       $end
$var wire    1  aaaab  rst       $end
$var wire    1  aaaac  pld       $end
$var wire    1  aaaad  cen       $end
$var wire   32  aaaae  parin [31:0]  $end
$var wire    1  aaaaf  cout       $end
$var wire   32  aaaag  cntout [31:0]  $end
$upscope $end
$enddefinitions  $end

$comment
All initial values are dumped below at time 0 sec = 0 timescale units.
$end

$dumpvars
0aaaaa
0aaaab
0aaaac
xaaaad
b11111111111111111111111111111010 aaaae
0aaaaf
bXXXXXXXXXXXXXXXXXXXXXXXXXXXXXXXX aaaag
$end

#5000
1aaaab
b0 aaaag

#10000
0aaaab

#20000
1aaaac

#50000
1aaaaa
b11111111111111111111111111111010 aaaag

#100000
0aaaaa

#120000
0aaaac
1aaaad

#150000
1aaaaa
b11111111111111111111111111111011 aaaag

#200000
0aaaaa

#250000
1aaaaa
b11111111111111111111111111111100 aaaag

#300000
0aaaaa

#350000
1aaaaa
b11111111111111111111111111111101 aaaag

#400000
0aaaaa

#450000
1aaaaa
b11111111111111111111111111111110 aaaag

#500000
0aaaaa

#550000
1aaaaa
b11111111111111111111111111111111 aaaag

#600000
0aaaaa
1aaaaf

#650000
1aaaaa
b0 aaaag

#700000
0aaaaa
0aaaaf

#750000
1aaaaa
b1 aaaag

#800000
0aaaaa

#850000
1aaaaa
b10 aaaag

#900000
0aaaaa

#950000
1aaaaa
b11 aaaag

